[
	{
        "section": "Info Coronavirus",
        "links": [
	        {
                "label": "Aller sur le site du gouvernement",
                "url": "https://www.gouvernement.fr/info-coronavirus"
            }
        ]
    },
    {
        "section": "👉 Où récupérer son certificat",
        "description" : "Vous pouvez récupérer votre certificat de vaccination sur https://attestation-vaccin.ameli.fr. Et \"Mon espace santé\" vous permet de conserver et partager vos données et documents de santé en toute confidentialité.",
        "links": [
	        {
                "label": "Votre certificat de vaccination",
                "url": "https://attestation-vaccin.ameli.fr/"
            },
            {
                "label": "Mon espace santé",
                "url": "https://www.monespacesante.fr/"
            }
        ]
    },
    {
        "section": "✈️ Voyager",
        "description" : "Diplomatie.gouv.fr vous donne les informations par pays, si vous souhaitez voyager à l'étranger ou venir en France.",
        "links": [
	        {
                "label": "Aller sur Diplomatie.gouv.fr 🇫🇷",
                "url": "https://www.diplomatie.gouv.fr/fr/"
            }
        ]
    }
]
